{
	"extends": ["eslint:recommended", "prettier"],
	"env": {
		"commonjs": true,
		"es6": true,
		"node": true
	},
	"parserOptions": {
		"ecmaVersion": 2020,
		"sourceType": "module"
	},
	"rules": {
		"@typescript-eslint/no-explicit-any": "warn",
		"no-console": "warn",
		"@typescript-eslint/no-unused-vars": ["error", { "argsIgnorePattern": "^_" }],
		"@typescript-eslint/no-require-imports": "error"
	},
	"overrides": [
		{
			"files": ["**/*.ts"],
			"parser": "@typescript-eslint/parser",
			"plugins": ["@typescript-eslint"],
			"extends": ["plugin:@typescript-eslint/recommended"]
		},
		{
			"files": ["**/*.test.ts"],
			"env": {
				"jest": true
			}
		}
	]
}
